-- Merging decision tree log ---
manifest
ADDED from /home/ylin/work/videri/MessageTestApp/CanvasSDK/canvas-sdk/src/main/AndroidManifest.xml:1:1-4:12
INJECTED from /home/ylin/work/videri/MessageTestApp/CanvasSDK/canvas-sdk/src/main/AndroidManifest.xml:1:1-4:12
INJECTED from /home/ylin/work/videri/MessageTestApp/CanvasSDK/canvas-sdk/src/main/AndroidManifest.xml:1:1-4:12
INJECTED from /home/ylin/work/videri/MessageTestApp/CanvasSDK/canvas-sdk/src/main/AndroidManifest.xml:1:1-4:12
INJECTED from /home/ylin/work/videri/MessageTestApp/CanvasSDK/canvas-sdk/src/main/AndroidManifest.xml:1:1-4:12
INJECTED from /home/ylin/work/videri/MessageTestApp/CanvasSDK/canvas-sdk/src/main/AndroidManifest.xml:1:1-4:12
INJECTED from /home/ylin/work/videri/MessageTestApp/CanvasSDK/canvas-sdk/src/main/AndroidManifest.xml:1:1-4:12
	package
		ADDED from /home/ylin/work/videri/MessageTestApp/CanvasSDK/canvas-sdk/src/main/AndroidManifest.xml:2:5-36
		INJECTED from /home/ylin/work/videri/MessageTestApp/CanvasSDK/canvas-sdk/src/main/AndroidManifest.xml
		INJECTED from /home/ylin/work/videri/MessageTestApp/CanvasSDK/canvas-sdk/src/main/AndroidManifest.xml
	android:versionName
		INJECTED from /home/ylin/work/videri/MessageTestApp/CanvasSDK/canvas-sdk/src/main/AndroidManifest.xml
		ADDED from /home/ylin/work/videri/MessageTestApp/CanvasSDK/canvas-sdk/src/main/AndroidManifest.xml:1:1-4:12
		INJECTED from /home/ylin/work/videri/MessageTestApp/CanvasSDK/canvas-sdk/src/main/AndroidManifest.xml
	android:versionCode
		INJECTED from /home/ylin/work/videri/MessageTestApp/CanvasSDK/canvas-sdk/src/main/AndroidManifest.xml
		ADDED from /home/ylin/work/videri/MessageTestApp/CanvasSDK/canvas-sdk/src/main/AndroidManifest.xml:1:1-4:12
		INJECTED from /home/ylin/work/videri/MessageTestApp/CanvasSDK/canvas-sdk/src/main/AndroidManifest.xml
	xmlns:android
		ADDED from /home/ylin/work/videri/MessageTestApp/CanvasSDK/canvas-sdk/src/main/AndroidManifest.xml:1:11-69
uses-sdk
INJECTED from /home/ylin/work/videri/MessageTestApp/CanvasSDK/canvas-sdk/src/main/AndroidManifest.xml reason: use-sdk injection requested
INJECTED from /home/ylin/work/videri/MessageTestApp/CanvasSDK/canvas-sdk/src/main/AndroidManifest.xml
INJECTED from /home/ylin/work/videri/MessageTestApp/CanvasSDK/canvas-sdk/src/main/AndroidManifest.xml
INJECTED from /home/ylin/work/videri/MessageTestApp/CanvasSDK/canvas-sdk/src/main/AndroidManifest.xml
INJECTED from /home/ylin/work/videri/MessageTestApp/CanvasSDK/canvas-sdk/src/main/AndroidManifest.xml
	android:targetSdkVersion
		INJECTED from /home/ylin/work/videri/MessageTestApp/CanvasSDK/canvas-sdk/src/main/AndroidManifest.xml
		ADDED from /home/ylin/work/videri/MessageTestApp/CanvasSDK/canvas-sdk/src/main/AndroidManifest.xml
		INJECTED from /home/ylin/work/videri/MessageTestApp/CanvasSDK/canvas-sdk/src/main/AndroidManifest.xml
	android:minSdkVersion
		INJECTED from /home/ylin/work/videri/MessageTestApp/CanvasSDK/canvas-sdk/src/main/AndroidManifest.xml
		ADDED from /home/ylin/work/videri/MessageTestApp/CanvasSDK/canvas-sdk/src/main/AndroidManifest.xml
		INJECTED from /home/ylin/work/videri/MessageTestApp/CanvasSDK/canvas-sdk/src/main/AndroidManifest.xml
